C:\Users\charli\workspace\spring-jdbc-rest\src\main\java\com\company\dao\UserDAO.java
C:\Users\charli\workspace\spring-jdbc-rest\src\main\java\com\company\controller\IndexController.java
C:\Users\charli\workspace\spring-jdbc-rest\src\main\java\com\company\controller\UserController.java
C:\Users\charli\workspace\spring-jdbc-rest\src\main\java\com\company\dao\JdbcUserDAO.java
C:\Users\charli\workspace\spring-jdbc-rest\src\main\java\com\company\test\UserServiceTest.java
C:\Users\charli\workspace\spring-jdbc-rest\src\main\java\com\company\model\User.java
